\relax 
\providecommand\hyper@newdestlabel[2]{}
\providecommand\HyperFirstAtBeginDocument{\AtBeginDocument}
\HyperFirstAtBeginDocument{\ifx\hyper@anchor\@undefined
\global\let\oldcontentsline\contentsline
\gdef\contentsline#1#2#3#4{\oldcontentsline{#1}{#2}{#3}}
\global\let\oldnewlabel\newlabel
\gdef\newlabel#1#2{\newlabelxx{#1}#2}
\gdef\newlabelxx#1#2#3#4#5#6{\oldnewlabel{#1}{{#2}{#3}}}
\AtEndDocument{\ifx\hyper@anchor\@undefined
\let\contentsline\oldcontentsline
\let\newlabel\oldnewlabel
\fi}
\fi}
\global\let\hyper@last\relax 
\gdef\HyperFirstAtBeginDocument#1{#1}
\providecommand\HyField@AuxAddToFields[1]{}
\providecommand\HyField@AuxAddToCoFields[2]{}
\providecommand \oddpage@label [2]{}
\@writefile{toc}{\contentsline {section}{\numberline {1}Introduction}{1}{section.1}\protected@file@percent }
\@writefile{toc}{\contentsline {section}{\numberline {2}Formulation of the methods }{1}{section.2}\protected@file@percent }
\@writefile{toc}{\contentsline {section}{\numberline {3}Implementation Details}{3}{section.3}\protected@file@percent }
\@writefile{loa}{\contentsline {algocf}{\numberline {1}{\ignorespaces Preconditioned Conjugate Gradient\relax }}{3}{algocf.1}\protected@file@percent }
\@writefile{toc}{\contentsline {section}{\numberline {4}Problem to solve}{4}{section.4}\protected@file@percent }
\@writefile{toc}{\contentsline {section}{\numberline {5}Convergence}{4}{section.5}\protected@file@percent }
\@writefile{lof}{\contentsline {figure}{\numberline {1}{\ignorespaces Top, Left to Right : $p$ is set to 1 and the number of points on the grid are increased from 20 to 200 to 2000 The exact solution (known as an analytic function, in green) and direct solution (in blue) are plotted along with the residual (in magenta). Bottom, repeat the same set of plots with $p$ set to 1000.\relax }}{5}{figure.caption.1}\protected@file@percent }
\@writefile{toc}{\contentsline {section}{\numberline {6}Spetral Analysis}{6}{section.6}\protected@file@percent }
\@writefile{lof}{\contentsline {figure}{\numberline {2}{\ignorespaces Histograms of eigenvalues corresponding to each method, $p=1000$ and grid resolution is $0.001$.\relax }}{6}{figure.caption.2}\protected@file@percent }
\@writefile{lof}{\contentsline {figure}{\numberline {3}{\ignorespaces Histograms of eigenvalues corresponding to each method. Top to bottom, number of points on the grid increasing from 20 to 2000 corresponding to grid resolutions of $0.1$,$0.01$,$0.001$. All cases correspind to $p=1$.\relax }}{7}{figure.caption.3}\protected@file@percent }
\@writefile{toc}{\contentsline {section}{\numberline {7}Results}{8}{section.7}\protected@file@percent }
\@writefile{toc}{\contentsline {subsection}{\numberline {7.1}$p=1$}{8}{subsection.7.1}\protected@file@percent }
\@writefile{toc}{\contentsline {subsection}{\numberline {7.2}$p=1000$}{8}{subsection.7.2}\protected@file@percent }
\@writefile{lof}{\contentsline {figure}{\numberline {4}{\ignorespaces Top to bottom, number of points on the grid increasing from 20 to 2000 corresponding to grid resolutions of $0.1$,$0.01$,$0.001$. Note that for the plots on the right, the x-axis corresponding to the number of iterations is in log-scale.\relax }}{9}{figure.caption.4}\protected@file@percent }
\@writefile{lof}{\contentsline {figure}{\numberline {5}{\ignorespaces Calculations with $p=1000$ for a grid size of 2000. Note that for the plot on the right, the x-axis corresponding to the number of iterations is in log-scale. \relax }}{10}{figure.caption.5}\protected@file@percent }
\@writefile{toc}{\contentsline {section}{\numberline {8}Conclusion}{11}{section.8}\protected@file@percent }
\@writefile{toc}{\contentsline {section}{\numberline {9}Appendix : cg\_utils.py}{12}{section.9}\protected@file@percent }
\@writefile{toc}{\contentsline {section}{\numberline {10}Appendix : cg.py}{13}{section.10}\protected@file@percent }
\@writefile{toc}{\contentsline {section}{\numberline {11}Appendix : pcg\_j.py}{15}{section.11}\protected@file@percent }
\@writefile{toc}{\contentsline {section}{\numberline {12}Appendix : pcg\_ssor.py}{16}{section.12}\protected@file@percent }
