\relax 
\providecommand\hyper@newdestlabel[2]{}
\providecommand\HyperFirstAtBeginDocument{\AtBeginDocument}
\HyperFirstAtBeginDocument{\ifx\hyper@anchor\@undefined
\global\let\oldcontentsline\contentsline
\gdef\contentsline#1#2#3#4{\oldcontentsline{#1}{#2}{#3}}
\global\let\oldnewlabel\newlabel
\gdef\newlabel#1#2{\newlabelxx{#1}#2}
\gdef\newlabelxx#1#2#3#4#5#6{\oldnewlabel{#1}{{#2}{#3}}}
\AtEndDocument{\ifx\hyper@anchor\@undefined
\let\contentsline\oldcontentsline
\let\newlabel\oldnewlabel
\fi}
\fi}
\global\let\hyper@last\relax 
\gdef\HyperFirstAtBeginDocument#1{#1}
\providecommand\HyField@AuxAddToFields[1]{}
\providecommand\HyField@AuxAddToCoFields[2]{}
\@writefile{toc}{\contentsline {section}{\numberline {1}Introduction}{1}{section.1}}
\@writefile{toc}{\contentsline {section}{\numberline {2}Formulation of the methods }{1}{section.2}}
\@writefile{toc}{\contentsline {subsection}{\numberline {2.1}Jacobi}{2}{subsection.2.1}}
\@writefile{toc}{\contentsline {subsection}{\numberline {2.2}Weighted-Jacobi}{2}{subsection.2.2}}
\@writefile{toc}{\contentsline {subsection}{\numberline {2.3}Gauss-Sidel}{2}{subsection.2.3}}
\@writefile{toc}{\contentsline {subsection}{\numberline {2.4}Red-black Gauss-Sidel}{2}{subsection.2.4}}
\@writefile{toc}{\contentsline {subsection}{\numberline {2.5}Symmetric Gauss-Sidel}{3}{subsection.2.5}}
\@writefile{toc}{\contentsline {subsection}{\numberline {2.6}Successive Over Relaxation}{3}{subsection.2.6}}
\@writefile{toc}{\contentsline {subsection}{\numberline {2.7}Symmetric Successive Over Relaxation}{3}{subsection.2.7}}
\@writefile{toc}{\contentsline {section}{\numberline {3}Implementation Details}{3}{section.3}}
\@writefile{toc}{\contentsline {section}{\numberline {4}Spectral Properties}{4}{section.4}}
\@writefile{lof}{\contentsline {figure}{\numberline {1}{\ignorespaces Top plots : Eigenvalue vs dominant (radial) frequency in eigenvector, Bottom plots : Histogram of eigenvalues. All the cases correspond to $N = 32$ and $K = 0$. \relax }}{5}{figure.caption.1}}
\@writefile{toc}{\contentsline {section}{\numberline {5}Parameter Sweep}{6}{section.5}}
\@writefile{lof}{\contentsline {figure}{\numberline {2}{\ignorespaces Plots showing the spectral radius for weighted jacobi (right y-axis), SOR and SSOR as a function of w at various combinations of N and K. The sweep was not performed for $N=64$ due to the high computional cost.\relax }}{6}{figure.caption.2}}
\@writefile{toc}{\contentsline {section}{\numberline {6}Dependence on K}{7}{section.6}}
\@writefile{toc}{\contentsline {section}{\numberline {7}Initialization case 1}{8}{section.7}}
\@writefile{lof}{\contentsline {figure}{\numberline {3}{\ignorespaces Plots showing convergence for various N and K for each method. Y-axis show the residual in log10 scale and X-axis shows the number of iterations. All methods were run to minimum of ( termination, 7500 ) iterations. The solutions for all cases where $K\not =2$ were visually inspected for correctness.\relax }}{8}{figure.caption.3}}
\@writefile{toc}{\contentsline {section}{\numberline {8}Initialization case 2}{9}{section.8}}
\@writefile{lof}{\contentsline {figure}{\numberline {4}{\ignorespaces Plots showing convergence for various N and K for each method. Y-axis show the residual in log10 scale and X-axis shows the number of iterations. All methods were run to minimum of ( termination, 7500 ) iterations.The solutions for all cases where $K\not =2$ were visually inspected for correctness.\relax }}{9}{figure.caption.4}}
\@writefile{toc}{\contentsline {section}{\numberline {9}Initialization case 3}{10}{section.9}}
\@writefile{lof}{\contentsline {figure}{\numberline {5}{\ignorespaces Plots showing convergence for various N and K for each method. Y-axis show the residual in log10 scale and X-axis shows the number of iterations. All methods were run to minimum of ( termination, 7500 ) iterations.The solutions for all cases where $K\not =2$ were visually inspected for correctness.\relax }}{10}{figure.caption.5}}
\@writefile{toc}{\contentsline {section}{\numberline {10}Conclusion}{11}{section.10}}
\@writefile{toc}{\contentsline {section}{\numberline {11}Appendix : utils.py}{11}{section.11}}
\@writefile{toc}{\contentsline {section}{\numberline {12}Appendix : red\_black\_utils.py}{14}{section.12}}
\@writefile{toc}{\contentsline {section}{\numberline {13}Appendix : jacobi.py}{17}{section.13}}
\@writefile{toc}{\contentsline {section}{\numberline {14}Appendix : weighted\_jacobi.py}{18}{section.14}}
\@writefile{toc}{\contentsline {section}{\numberline {15}Appendix : gauss\_sidel.py}{18}{section.15}}
\@writefile{toc}{\contentsline {section}{\numberline {16}Appendix : sor.py}{19}{section.16}}
\@writefile{toc}{\contentsline {section}{\numberline {17}Appendix : ssor.py}{20}{section.17}}
