\BOOKMARK [1][-]{section.1}{Introduction}{}% 1
\BOOKMARK [1][-]{section.2}{Multigrid}{}% 2
\BOOKMARK [1][-]{section.3}{Dirichlet BC}{}% 3
\BOOKMARK [2][-]{subsection.3.1}{Analytic solution}{section.3}% 4
\BOOKMARK [2][-]{subsection.3.2}{Briggs Multigrid plots}{section.3}% 5
\BOOKMARK [3][-]{subsubsection.3.2.1}{K=0}{subsection.3.2}% 6
\BOOKMARK [3][-]{subsubsection.3.2.2}{K=2}{subsection.3.2}% 7
\BOOKMARK [1][-]{section.4}{Neumann BC}{}% 8
\BOOKMARK [2][-]{subsection.4.1}{Analytic solution}{section.4}% 9
\BOOKMARK [2][-]{subsection.4.2}{Modifications}{section.4}% 10
\BOOKMARK [1][-]{section.5}{Appendix : mg\137utils.py}{}% 11
