\relax 
\providecommand\hyper@newdestlabel[2]{}
\providecommand\HyperFirstAtBeginDocument{\AtBeginDocument}
\HyperFirstAtBeginDocument{\ifx\hyper@anchor\@undefined
\global\let\oldcontentsline\contentsline
\gdef\contentsline#1#2#3#4{\oldcontentsline{#1}{#2}{#3}}
\global\let\oldnewlabel\newlabel
\gdef\newlabel#1#2{\newlabelxx{#1}#2}
\gdef\newlabelxx#1#2#3#4#5#6{\oldnewlabel{#1}{{#2}{#3}}}
\AtEndDocument{\ifx\hyper@anchor\@undefined
\let\contentsline\oldcontentsline
\let\newlabel\oldnewlabel
\fi}
\fi}
\global\let\hyper@last\relax 
\gdef\HyperFirstAtBeginDocument#1{#1}
\providecommand\HyField@AuxAddToFields[1]{}
\providecommand\HyField@AuxAddToCoFields[2]{}
\@writefile{toc}{\contentsline {section}{\numberline {1}Introduction}{1}{section.1}}
\@writefile{toc}{\contentsline {section}{\numberline {2}Multigrid}{1}{section.2}}
\@writefile{toc}{\contentsline {section}{\numberline {3}Dirichlet BC}{2}{section.3}}
\@writefile{toc}{\contentsline {subsection}{\numberline {3.1}Analytic solution}{2}{subsection.3.1}}
\@writefile{toc}{\contentsline {subsection}{\numberline {3.2}Briggs Multigrid plots}{2}{subsection.3.2}}
\@writefile{toc}{\contentsline {subsubsection}{\numberline {3.2.1}$K=0$}{3}{subsubsection.3.2.1}}
\@writefile{lof}{\contentsline {figure}{\numberline {1}{\ignorespaces The six plots from Birggs for $K=0$ : initial guess, one sweep on weighted-jacobi on fine grid, three sweeps of weighted-jacobi on fine grid, three sweeps of weighted-jacobi on fine grid followed by one coarse sweep, three sweeps of weighted-jacobi on fine grid followed by three coarse sweeps, three sweeps of weighted-jacobi on fine grid followed by three coarse sweeps followed by three fine sweeps.\relax }}{3}{figure.caption.1}}
\@writefile{toc}{\contentsline {subsubsection}{\numberline {3.2.2}$K=2$}{4}{subsubsection.3.2.2}}
\@writefile{lof}{\contentsline {figure}{\numberline {2}{\ignorespaces The six plots from Birggs for $K=2$ : initial guess, one sweep on weighted-jacobi on fine grid, three sweeps of weighted-jacobi on fine grid, three sweeps of weighted-jacobi on fine grid followed by one coarse sweep, three sweeps of weighted-jacobi on fine grid followed by three coarse sweeps, three sweeps of weighted-jacobi on fine grid followed by three coarse sweeps followed by three fine sweeps.\relax }}{4}{figure.caption.2}}
\@writefile{toc}{\contentsline {section}{\numberline {4}Neumann BC}{5}{section.4}}
\@writefile{toc}{\contentsline {subsection}{\numberline {4.1}Analytic solution}{5}{subsection.4.1}}
\@writefile{toc}{\contentsline {subsection}{\numberline {4.2}Modifications}{5}{subsection.4.2}}
\@writefile{lof}{\contentsline {figure}{\numberline {3}{\ignorespaces The six plots from Birggs for neumann BC : initial guess, one sweep on weighted-jacobi on fine grid, three sweeps of weighted-jacobi on fine grid, three sweeps of weighted-jacobi on fine grid followed by one coarse sweep, three sweeps of weighted-jacobi on fine grid followed by three coarse sweeps, three sweeps of weighted-jacobi on fine grid followed by three coarse sweeps followed by three fine sweeps.\relax }}{7}{figure.caption.3}}
\@writefile{toc}{\contentsline {section}{\numberline {5}Appendix : mg\_utils.py}{8}{section.5}}
